module gitlab.com/l0nax/immich-external-reverse-geocode

go 1.21.0

require (
	github.com/gofiber/fiber/v2 v2.51.0
	github.com/lmittmann/tint v1.0.3
	github.com/sams96/rgeo v1.2.0
	github.com/twpayne/go-geom v1.5.3
)

require (
	github.com/andybalholm/brotli v1.0.5 // indirect
	github.com/golang/geo v0.0.0-20200730024412-e86565bf3f35 // indirect
	github.com/google/uuid v1.4.0 // indirect
	github.com/klauspost/compress v1.16.7 // indirect
	github.com/mattn/go-colorable v0.1.13 // indirect
	github.com/mattn/go-isatty v0.0.20 // indirect
	github.com/mattn/go-runewidth v0.0.15 // indirect
	github.com/pkg/errors v0.9.1 // indirect
	github.com/rivo/uniseg v0.2.0 // indirect
	github.com/valyala/bytebufferpool v1.0.0 // indirect
	github.com/valyala/fasthttp v1.50.0 // indirect
	github.com/valyala/tcplisten v1.0.0 // indirect
	golang.org/x/sys v0.14.0 // indirect
)
